﻿{
  "Group": "EcoRenew",
  "FriendlyName": "Stripe",
  "SystemName": "Ecorenew.Stripe",
  "Version": "1.00",
  "SupportedVersions": [ "4.00" ],
  "Author": "EcoRenew Group",
  "DisplayOrder": 2,
  "FileName": "Nop.Plugin.Ecorenew.Stripe.dll",
  "Description": "This plugin allows paying with Stripe"
}