﻿{
  "Group": "EcoRenew",
  "FriendlyName": "Customer Reminder",
  "SystemName": "Ecorenew.CustomerReminder",
  "Version": "1.00",
  "SupportedVersions": [ "4.00" ],
  "Author": "EcoRenew Group",
  "DisplayOrder": 1,
  "FileName": "Nop.Plugin.Ecorenew.CustomerReminder.dll"
}