﻿{
  "Group": "7Spikes",
  "FriendlyName": "Nop Customer Reminders",
  "SystemName": "SevenSpikes.Nop.Plugins.CustomerReminders",
  "Version": "4.0",
  "SupportedVersions": [ "4.00" ],
  "Author": "Seven Spikes Ltd",
  "DisplayOrder": 1,
  "FileName": "SevenSpikes.Nop.Plugins.CustomerReminders.dll",
  "Description": "With this plugin you can automatically recover abandoned shopping carts, incomplete registrations, unpaid orders and more."
}